<svg xmlns="http://www.w3.org/2000/svg" xmlns:xlink="http://www.w3.org/1999/xlink" width="124.7" height="42.034" viewBox="0 0 124.7 42.034">
  <defs>
    <clipPath id="clip-path">
      <path id="Caminho_76" data-name="Caminho 76" d="M0-86.814H124.7v42.035H0Z" transform="translate(0 86.814)" fill="#fff"/>
    </clipPath>
    <clipPath id="clip-path-2">
      <path id="Caminho_78" data-name="Caminho 78" d="M6.588-86.815A6.4,6.4,0,0,0,.247-81.248h0c.975-2.14,3.786-2.977,4.981-3.339h0A18.719,18.719,0,0,0,8.955-85.9h0a.908.908,0,0,0,.366-.3h0A6.5,6.5,0,0,0,6.588-86.815Z" transform="translate(-0.247 86.815)" fill="none"/>
    </clipPath>
    <radialGradient id="radial-gradient" cx="4.347" cy="88.805" r="7.411" gradientTransform="translate(-0.055 -1.126) scale(1.013 1.013)" gradientUnits="userSpaceOnUse">
      <stop offset="0" stop-color="#fdf6c3"/>
      <stop offset="0.1" stop-color="#ffeb9b"/>
      <stop offset="0.2" stop-color="#ffe074"/>
      <stop offset="0.3" stop-color="#ffd74f"/>
      <stop offset="0.4" stop-color="#ffcd3e"/>
      <stop offset="0.5" stop-color="#ffc339"/>
      <stop offset="0.6" stop-color="#ffb935"/>
      <stop offset="0.7" stop-color="#ffb131"/>
      <stop offset="0.8" stop-color="#ffaa2e"/>
      <stop offset="0.9" stop-color="#ffa42c"/>
      <stop offset="1" stop-color="#ffa12b"/>
    </radialGradient>
    <clipPath id="clip-path-3">
      <path id="Caminho_80" data-name="Caminho 80" d="M8.9-85.251a18.72,18.72,0,0,1-3.727,1.315h0c-1.2.362-4.006,1.2-4.981,3.339h0a5.919,5.919,0,0,0-.048.835h0a6.376,6.376,0,0,0,1.5,4.125h0a1.584,1.584,0,0,1-.17-1.433h0c.587-1.374,2.52-2.043,4.7-3.02h0c1.273-.566,4.77-1.777,5.137-3.368h0a1.127,1.127,0,0,0-.117-.693h0a6.412,6.412,0,0,0-1.928-1.4h0a.908.908,0,0,1-.366.3" transform="translate(-0.148 85.552)" fill="none"/>
    </clipPath>
    <radialGradient id="radial-gradient-2" cx="4.559" cy="64.124" r="10.051" gradientTransform="translate(1.032 14.514) scale(0.774 0.774)" gradientUnits="userSpaceOnUse">
      <stop offset="0" stop-color="#ffedcb"/>
      <stop offset="0.1" stop-color="#ffd291"/>
      <stop offset="0.2" stop-color="#ffbb62"/>
      <stop offset="0.3" stop-color="#ffab44"/>
      <stop offset="0.4" stop-color="#ff9639"/>
      <stop offset="0.5" stop-color="#ff8230"/>
      <stop offset="0.6" stop-color="#ff7229"/>
      <stop offset="0.7" stop-color="#ff6423"/>
      <stop offset="0.8" stop-color="#ff591f"/>
      <stop offset="0.9" stop-color="#ff521c"/>
      <stop offset="1" stop-color="#ff4f1b"/>
    </radialGradient>
    <clipPath id="clip-path-4">
      <path id="Caminho_82" data-name="Caminho 82" d="M12.622-81.964c-.367,1.59-3.863,2.8-5.137,3.368h0c-2.179.977-4.111,1.647-4.7,3.02h0a1.584,1.584,0,0,0,.17,1.433h0a6.441,6.441,0,0,0,2.032,1.6h0c-.174-.13-.319-.308-.279-.456h0c.04-.166.212-.326.474-.488h0a25.138,25.138,0,0,1,4-1.542h0c2.022-.7,3.768-1.54,4.582-2.808h0a2.981,2.981,0,0,0,.339-1.821h0a6.406,6.406,0,0,0-1.6-3h0a1.127,1.127,0,0,1,.117.693" transform="translate(-2.682 82.657)" fill="none"/>
    </clipPath>
    <radialGradient id="radial-gradient-3" cx="5.517" cy="97.731" r="9.675" gradientTransform="translate(-0.659 -11.681) scale(1.12 1.12)" gradientUnits="userSpaceOnUse">
      <stop offset="0" stop-color="#fbc2dd"/>
      <stop offset="0.1" stop-color="#f8a5c9"/>
      <stop offset="0.2" stop-color="#f688b5"/>
      <stop offset="0.3" stop-color="#f46aa3"/>
      <stop offset="0.4" stop-color="#f24c92"/>
      <stop offset="0.5" stop-color="#f02e82"/>
      <stop offset="0.6" stop-color="#d82a74"/>
      <stop offset="0.7" stop-color="#c02667"/>
      <stop offset="0.8" stop-color="#aa225b"/>
      <stop offset="0.9" stop-color="#961f4f"/>
      <stop offset="1" stop-color="#831c45"/>
    </radialGradient>
  </defs>
  <g id="Agrupar_141" data-name="Agrupar 141" transform="translate(-80 -65.209)">
    <g id="Agrupar_121" data-name="Agrupar 121" transform="translate(80 65.209)">
      <g id="Agrupar_77" data-name="Agrupar 77" transform="translate(0 14.561)">
        <path id="Caminho_62" data-name="Caminho 62" d="M0,0V5.406H2.389v8.2H0l0,5.4H13.8V13.6h-2.4V0Z" transform="translate(0.009)" fill="#fff"/>
      </g>
      <g id="Agrupar_89" data-name="Agrupar 89" transform="translate(0 0)" clip-path="url(#clip-path)">
        <g id="Agrupar_78" data-name="Agrupar 78" transform="translate(12.129 14.169)">
          <path id="Caminho_63" data-name="Caminho 63" d="M-14.784-20.653v-5.4h1.073v-5.339c0-1.647-.106-3.147-1.073-3.147-.928,0-1.86,1.186-2.466,3.583v4.9h1.042l0,5.4H-28.661v-5.4H-26.3v-8.2h-2.358v-5.405H-17.25v4.079A8.124,8.124,0,0,1-10.2-40.041c3.175,0,5.509,2.682,5.509,6.254v7.738h2.393v5.4Z" transform="translate(28.661 40.041)" fill="#fff"/>
        </g>
        <g id="Agrupar_79" data-name="Agrupar 79" transform="translate(36.635 14.17)">
          <path id="Caminho_64" data-name="Caminho 64" d="M-11.273-21.082c-5.542,0-10.583-3.76-10.583-9.879,0-6.155,5.045-9.91,10.583-9.91,5.337,0,8.627,3.859,8.627,6.585,0,2.608-1.5,4-3.684,4a2.473,2.473,0,0,1-2.618-2.4c0-1.188.86-1.47.86-2.291a1.558,1.558,0,0,0-1.713-1.4c-1.938,0-2.753,1.973-2.753,5.407,0,3.392.815,5.4,2.753,5.4A4.544,4.544,0,0,0-5.577-28.6h3.572a8.918,8.918,0,0,1-9.268,7.519" transform="translate(21.856 40.871)" fill="#fff"/>
        </g>
        <g id="Agrupar_80" data-name="Agrupar 80" transform="translate(54.88 14.169)">
          <path id="Caminho_65" data-name="Caminho 65" d="M-13.449-7.315c0-1.25-.434-2.18-1.576-2.18-1.112,0-1.538.93-1.538,2.18v.641h3.114Zm-3.114,3.756v1.682c0,1.893.862,2.787,2.54,2.787A4.465,4.465,0,0,0-9.806-2.128h5.66C-5.187,2.7-9.658,5.607-15.024,5.607c-6.109,0-11.049-3.76-11.049-9.879,0-6.155,4.94-9.91,11.049-9.91,6.162,0,11.09,3.755,11.09,9.91v.713Z" transform="translate(26.073 14.182)" fill="#fff"/>
        </g>
        <g id="Agrupar_81" data-name="Agrupar 81" transform="translate(75.875 14.169)">
          <path id="Caminho_66" data-name="Caminho 66" d="M-14.781-20.653v-5.4h1.075v-5.339c0-1.647-.112-3.147-1.075-3.147-.928,0-1.856,1.186-2.47,3.583v4.9h1.041v5.4H-28.656v-5.4H-26.3v-8.2h-2.359v-5.405h11.405v4.079A8.137,8.137,0,0,1-10.2-40.041c3.189,0,5.513,2.682,5.513,6.254v7.738H-2.3v5.4Z" transform="translate(28.656 40.041)" fill="#fff"/>
        </g>
        <g id="Agrupar_82" data-name="Agrupar 82" transform="translate(99.913 14.133)">
          <path id="Caminho_67" data-name="Caminho 67" d="M-12.491-12.348c-1.962.144-2.89,1.113-2.89,2.291A1.278,1.278,0,0,0-13.952-8.7a1.431,1.431,0,0,0,1.461-1.391Zm6.7,8.235c-2.466,0-4.977-1.076-5.871-2.766-.925,1.506-3.395,2.766-5.789,2.766-3.8,0-6.761-1.727-6.761-4.98,0-4.147,4.933-5.652,11.726-5.831v-3c0-.964-.1-1.612-1.109-1.612-.785,0-1.065.354-1.065.821,0,.4.174.683.174,1.113,0,1.211-1.258,2.251-3.9,2.251s-4.151-1.319-4.151-3.471c0-2.464,2.9-5.114,9.085-5.114,6.228,0,9.63,2.932,9.63,6.258V-9.2c0,.539.248.822.675.822.467,0,.722-.283.722-.822V-10.52h3v.61c0,3.427-2.323,5.8-6.366,5.8" transform="translate(24.217 23.939)" fill="#fff"/>
        </g>
        <g id="Agrupar_83" data-name="Agrupar 83" transform="translate(24.506 37.257)">
          <path id="Caminho_68" data-name="Caminho 68" d="M-3.459-2.5A1.344,1.344,0,0,0-4.875-3.909h-.792V-1.08h.792A1.342,1.342,0,0,0-3.459-2.487ZM-4.875-.158H-6.706V-4.85h1.831a2.343,2.343,0,0,1,2.5,2.337V-2.5a2.345,2.345,0,0,1-2.5,2.343" transform="translate(6.706 4.85)" fill="#fff"/>
        </g>
        <path id="Caminho_69" data-name="Caminho 69" d="M78.164-9.866h1.027v4.691H78.164Z" transform="translate(-40.317 47.124)" fill="#fff"/>
        <g id="Agrupar_84" data-name="Agrupar 84" transform="translate(47.891 37.181)">
          <path id="Caminho_70" data-name="Caminho 70" d="M-2.622-5.17A2.343,2.343,0,0,1-5.084-7.584V-7.6a2.4,2.4,0,0,1,2.452-2.424,2.573,2.573,0,0,1,1.85.645l-.651.783a1.726,1.726,0,0,0-1.224-.47A1.408,1.408,0,0,0-4.012-7.611V-7.6A1.407,1.407,0,0,0-2.582-6.111a1.654,1.654,0,0,0,.967-.277v-.673H-2.653v-.892H-.615v2.037a3.023,3.023,0,0,1-2.007.746" transform="translate(5.084 10.024)" fill="#fff"/>
        </g>
        <path id="Caminho_71" data-name="Caminho 71" d="M126.92-9.866h1.027v4.691H126.92Z" transform="translate(-65.466 47.124)" fill="#fff"/>
        <g id="Agrupar_85" data-name="Agrupar 85" transform="translate(71.357 37.257)">
          <path id="Caminho_72" data-name="Caminho 72" d="M-2.621-1.017V2.721H-3.651V-1.017H-5.082v-.954H-1.19v.954Z" transform="translate(5.082 1.971)" fill="#fff"/>
        </g>
        <g id="Agrupar_86" data-name="Agrupar 86" transform="translate(83.079 37.229)">
          <path id="Caminho_73" data-name="Caminho 73" d="M-2.641-1.326-3.268.191h1.242ZM-1.218,2.15l-.436-1.045H-3.638L-4.064,2.15H-5.121l2.006-4.72h.959L-.147,2.15Z" transform="translate(5.121 2.57)" fill="#fff"/>
        </g>
        <g id="Agrupar_87" data-name="Agrupar 87" transform="translate(96.826 37.258)">
          <path id="Caminho_74" data-name="Caminho 74" d="M0-5V-9.689H1.031v3.763H3.37V-5Z" transform="translate(0 9.689)" fill="#fff"/>
        </g>
        <g id="Agrupar_88" data-name="Agrupar 88" transform="translate(3.319 11.185)">
          <path id="Caminho_75" data-name="Caminho 75" d="M-.968-1.235c.2-.033-.173-.745-.429-1.159-.261.161-.433.322-.474.488-.04.149.1.327.279.456.16.077.322.149.5.215a.214.214,0,0,0,.128,0" transform="translate(1.877 2.394)" fill="#fff"/>
        </g>
      </g>
    </g>
    <g id="Agrupar_91" data-name="Agrupar 91" transform="translate(80.119 65.209)" clip-path="url(#clip-path-2)">
      <g id="Agrupar_90" data-name="Agrupar 90" transform="translate(63.816 -62.33) rotate(45.728)">
        <path id="Caminho_77" data-name="Caminho 77" d="M0,89.29,87.048,0l30.1,29.343L30.1,118.633Z" transform="translate(0 0)" fill="url(#radial-gradient)"/>
      </g>
    </g>
    <g id="Agrupar_93" data-name="Agrupar 93" transform="translate(80.071 65.82)" clip-path="url(#clip-path-3)">
      <g id="Agrupar_92" data-name="Agrupar 92" transform="matrix(0.861, 0.509, -0.509, 0.861, 32.177, -55.214)">
        <path id="Caminho_79" data-name="Caminho 79" d="M0,63.415,107.372,0l21.376,36.194L21.376,99.608Z" transform="translate(0 0)" fill="url(#radial-gradient-2)"/>
      </g>
    </g>
    <g id="Agrupar_95" data-name="Agrupar 95" transform="translate(81.299 67.221)" clip-path="url(#clip-path-4)">
      <g id="Agrupar_94" data-name="Agrupar 94" transform="matrix(0.623, 0.782, -0.782, 0.623, 75.053, -62.771)">
        <path id="Caminho_81" data-name="Caminho 81" d="M0,97.576,77.647,0l32.892,26.174L32.892,123.75Z" transform="translate(0 0)" fill="url(#radial-gradient-3)"/>
      </g>
    </g>
  </g>
</svg>
